…
```
## # A tibble: 1 ¡Á 1
##      delay
##      <dbl>
## 1 12.63907
```

```r
by_day <- group_by(flights, year, month, day)
summarise(by_day, delay = mean(dep_delay, na.rm = TRUE))
```

```
## Source: local data frame [365 x 4]
## Groups: year, month [?]
## 
##     year month   day     delay
##    <int> <int> <int>     <dbl>
## 1   2013     1     1 11.548926
## 2   2013     1     2 13.858824
## 3   2013     1     3 10.987832
## 4   2013     1     4  8.951595
## 5   2013     1     5  5.732218
## 6   2013     1     6  7.148014
## 7   2013     1     7  5.417204
## 8   2013     1     8  2.553073
## 9   2013     1     9  2.276477
## 10  2013     1    10  2.844995
## # ... with 355 more rows
```
…
flights %>% 
  group_by(year, month, day) %>% 
  summarise(mean = mean(dep_delay))
```

```
## Source: local data frame [365 x 4]
## Groups: year, month [?]
## 
##     year month   day  mean
##    <int> <int> <int> <dbl>
## 1   2013     1     1    NA
## 2   2013     1     2    NA
## 3   2013     1     3    NA
## 4   2013     1     4    NA
## 5   2013     1     5    NA
## 6   2013     1     6    NA
## 7   2013     1     7    NA
## 8   2013     1     8    NA
## 9   2013     1     9    NA
## 10  2013     1    10    NA
## # ... with 355 more rows
```

```r
#get rid of the missing values
flights %>% 
  group_by(year, month, day) %>% 
  summarise(mean = mean(dep_delay, na.rm = TRUE))
```

```
## Source: local data frame [365 x 4]
## Groups: year, month [?]
## 
##     year month   day      mean
##    <int> <int> <int>     <dbl>
## 1   2013     1     1 11.548926
## 2   2013     1     2 13.858824
## 3   2013     1     3 10.987832
## 4   2013     1     4  8.951595
## 5   2013     1     5  5.732218
## 6   2013     1     6  7.148014
## 7   2013     1     7  5.417204
## 8   2013     1     8  2.553073
## 9   2013     1     9  2.276477
## 10  2013     1    10  2.844995
## # ... with 355 more rows
```

```r
not_cancelled <- flights %>% 
  filter(!is.na(dep_delay), !is.na(arr_delay))

not_cancelled %>% 
  group_by(year, month, day) %>% 
  summarise(mean = mean(dep_delay))
```

```
## Source: local data frame [365 x 4]
## Groups: year, month [?]
## 
##     year month   day      mean
##    <int> <int> <int>     <dbl>
## 1   2013     1     1 11.435620
## 2   2013     1     2 13.677802
## 3   2013     1     3 10.907778
## 4   2013     1     4  8.965859
## 5   2013     1     5  5.732218
## 6   2013     1     6  7.145959
## 7   2013     1     7  5.417204
## 8   2013     1     8  2.558296
## 9   2013     1     9  2.301232
## 10  2013     1    10  2.844995
## # ... with 355 more rows
```
…
```r
not_cancelled %>% 
  group_by(year, month, day) %>% 
  summarise(
    avg_delay1 = mean(arr_delay),
    avg_delay2 = mean(arr_delay[arr_delay > 0]) # the average positive delay
  )
```

```
## Source: local data frame [365 x 5]
## Groups: year, month [?]
## 
##     year month   day avg_delay1 avg_delay2
##    <int> <int> <int>      <dbl>      <dbl>
## 1   2013     1     1 12.6510229   32.48156
## 2   2013     1     2 12.6928879   32.02991
## 3   2013     1     3  5.7333333   27.66087
## 4   2013     1     4 -1.9328194   28.30976
## 5   2013     1     5 -1.5258020   22.55882
## 6   2013     1     6  4.2364294   24.37270
## 7   2013     1     7 -4.9473118   27.76132
## 8   2013     1     8 -3.2275785   20.78909
## 9   2013     1     9 -0.2642777   25.63415
## 10  2013     1    10 -5.8988159   27.34545
## # ... with 355 more rows
```
…
```r
not_cancelled %>% 
  group_by(year, month, day) %>% 
  summarise(
    first = min(dep_time),
    last = max(dep_time)
  )
```

```
## Source: local data frame [365 x 5]
## Groups: year, month [?]
## 
##     year month   day first  last
##    <int> <int> <int> <int> <int>
## 1   2013     1     1   517  2356
## 2   2013     1     2    42  2354
## 3   2013     1     3    32  2349
## 4   2013     1     4    25  2358
## 5   2013     1     5    14  2357
## 6   2013     1     6    16  2355
## 7   2013     1     7    49  2359
## 8   2013     1     8   454  2351
## 9   2013     1     9     2  2252
## 10  2013     1    10     3  2320
## # ... with 355 more rows
```

```r
not_cancelled %>% 
  group_by(year, month, day) %>% 
  summarise(
    first_dep = first(dep_time), 
    last_dep = last(dep_time)
  )
```

```
## Source: local data frame [365 x 5]
## Groups: year, month [?]
## 
##     year month   day first_dep last_dep
##    <int> <int> <int>     <int>    <int>
## 1   2013     1     1       517     2356
## 2   2013     1     2        42     2354
## 3   2013     1     3        32     2349
## 4   2013     1     4        25     2358
## 5   2013     1     5        14     2357
## 6   2013     1     6        16     2355
## 7   2013     1     7        49     2359
## 8   2013     1     8       454     2351
## 9   2013     1     9         2     2252
## 10  2013     1    10         3     2320
## # ... with 355 more rows
```

```r
not_cancelled %>% 
  group_by(year, month, day) %>% 
  mutate(r = min_rank(desc(dep_time))) %>% 
  filter(r %in% range(r))
```

```
## Source: local data frame [770 x 20]
## Groups: year, month, day [365]
## 
##     year month   day dep_time sched_dep_time dep_delay arr_time
##    <int> <int> <int>    <int>          <int>     <dbl>    <int>
## 1   2013     1     1      517            515         2      830
## 2   2013     1     1     2356           2359        -3      425
## 3   2013     1     2       42           2359        43      518
## 4   2013     1     2     2354           2359        -5      413
## 5   2013     1     3       32           2359        33      504
## 6   2013     1     3     2349           2359       -10      434
## 7   2013     1     4       25           2359        26      505
## 8   2013     1     4     2358           2359        -1      429
## 9   2013     1     4     2358           2359        -1      436
## 10  2013     1     5       14           2359        15      503
## # ... with 760 more rows, and 13 more variables: sched_arr_time <int>,
## #   arr_delay <dbl>, carrier <chr>, flight <int>, tailnum <chr>,
## #   origin <chr>, dest <chr>, air_time <dbl>, distance <dbl>, hour <dbl>,
## #   minute <dbl>, time_hour <dttm>, r <int>
```
…
```r
not_cancelled %>% 
  group_by(year, month, day) %>% 
  summarise(n_early = sum(dep_time < 500))
```

```
## Source: local data frame [365 x 4]
## Groups: year, month [?]
## 
##     year month   day n_early
##    <int> <int> <int>   <int>
## 1   2013     1     1       0
## 2   2013     1     2       3
## 3   2013     1     3       4
## 4   2013     1     4       3
## 5   2013     1     5       3
## 6   2013     1     6       2
## 7   2013     1     7       2
## 8   2013     1     8       1
## 9   2013     1     9       3
## 10  2013     1    10       3
## # ... with 355 more rows
```

```r
daily <- group_by(flights, year, month, day)

(per_day   <- summarise(daily, flights = n()))
```

```
## Source: local data frame [365 x 4]
## Groups: year, month [?]
## 
##     year month   day flights
##    <int> <int> <int>   <int>
## 1   2013     1     1     842
## 2   2013     1     2     943
## 3   2013     1     3     914
## 4   2013     1     4     915
## 5   2013     1     5     720
## 6   2013     1     6     832
## 7   2013     1     7     933
## 8   2013     1     8     899
## 9   2013     1     9     902
## 10  2013     1    10     932
## # ... with 355 more rows
```
…
```r
#3
#dep_delay is the most important column, in case of accident, there will be some flights that do not arrive.

#4

flights %>%
  group_by(year, month, day) %>%
  summarize(prop_canceled = mean(is.na(dep_delay)) ,
            avg_delay = mean(dep_delay, na.rm = TRUE))
```

```
## Source: local data frame [365 x 5]
## Groups: year, month [?]
## 
##     year month   day prop_canceled avg_delay
##    <int> <int> <int>         <dbl>     <dbl>
## 1   2013     1     1   0.004750594 11.548926
## 2   2013     1     2   0.008483563 13.858824
## 3   2013     1     3   0.010940919 10.987832
## 4   2013     1     4   0.006557377  8.951595
## 5   2013     1     5   0.004166667  5.732218
## 6   2013     1     6   0.001201923  7.148014
## 7   2013     1     7   0.003215434  5.417204
## 8   2013     1     8   0.004449388  2.553073
## 9   2013     1     9   0.005543237  2.276477
## 10  2013     1    10   0.003218884  2.844995
## # ... with 355 more rows
```
…
```r
flights_sml %>% 
  group_by(year, month, day) %>%
  filter(rank(desc(arr_delay)) < 10)
```

```
## Source: local data frame [3,306 x 7]
## Groups: year, month, day [365]
## 
##     year month   day dep_delay arr_delay distance air_time
##    <int> <int> <int>     <dbl>     <dbl>    <dbl>    <dbl>
## 1   2013     1     1       853       851      184       41
## 2   2013     1     1       290       338     1134      213
## 3   2013     1     1       260       263      266       46
## 4   2013     1     1       157       174      213       60
## 5   2013     1     1       216       222      708      121
## 6   2013     1     1       255       250      589      115
## 7   2013     1     1       285       246     1085      146
## 8   2013     1     1       192       191      199       44
## 9   2013     1     1       379       456     1092      222
## 10  2013     1     2       224       207      550       94
## # ... with 3,296 more rows
```

```r
popular_dests <- flights %>% 
  group_by(dest) %>% 
  filter(n() > 365)
popular_dests
```

```
## Source: local data frame [332,577 x 19]
## Groups: dest [77]
## 
##     year month   day dep_time sched_dep_time dep_delay arr_time
##    <int> <int> <int>    <int>          <int>     <dbl>    <int>
## 1   2013     1     1      517            515         2      830
## 2   2013     1     1      533            529         4      850
## 3   2013     1     1      542            540         2      923
## 4   2013     1     1      544            545        -1     1004
## 5   2013     1     1      554            600        -6      812
## 6   2013     1     1      554            558        -4      740
## 7   2013     1     1      555            600        -5      913
## 8   2013     1     1      557            600        -3      709
## 9   2013     1     1      557            600        -3      838
## 10  2013     1     1      558            600        -2      753
## # ... with 332,567 more rows, and 12 more variables: sched_arr_time <int>,
## #   arr_delay <dbl>, carrier <chr>, flight <int>, tailnum <chr>,
## #   origin <chr>, dest <chr>, air_time <dbl>, distance <dbl>, hour <dbl>,
## #   minute <dbl>, time_hour <dttm>
```

```r
popular_dests %>% 
  filter(arr_delay > 0) %>% 
  mutate(prop_delay = arr_delay / sum(arr_delay)) %>% 
  select(year:day, dest, arr_delay, prop_delay)
```

```
## Source: local data frame [131,106 x 6]
## Groups: dest [77]
## 
##     year month   day  dest arr_delay   prop_delay
##    <int> <int> <int> <chr>     <dbl>        <dbl>
## 1   2013     1     1   IAH        11 1.106740e-04
## 2   2013     1     1   IAH        20 2.012255e-04
## 3   2013     1     1   MIA        33 2.350026e-04
## 4   2013     1     1   ORD        12 4.239594e-05
## 5   2013     1     1   FLL        19 9.377853e-05
## 6   2013     1     1   ORD         8 2.826396e-05
## 7   2013     1     1   LAX         7 3.444441e-05
## 8   2013     1     1   DFW        31 2.817951e-04
## 9   2013     1     1   ATL        12 3.996017e-05
## 10  2013     1     1   DTW        16 1.157257e-04
## # ... with 131,096 more rows
```
…
#1
?mutate()
?filter()

#2
flights %>% 
  group_by(tailnum) %>%
  filter(rank(desc(arr_delay)) < 10) %>%
  arrange(desc(arr_delay))
```

```
## Source: local data frame [33,429 x 19]
## Groups: tailnum [4,044]
## 
##     year month   day dep_time sched_dep_time dep_delay arr_time
##    <int> <int> <int>    <int>          <int>     <dbl>    <int>
## 1   2013     1     9      641            900      1301     1242
## 2   2013     6    15     1432           1935      1137     1607
## 3   2013     1    10     1121           1635      1126     1239
## 4   2013     9    20     1139           1845      1014     1457
## 5   2013     7    22      845           1600      1005     1044
## 6   2013     4    10     1100           1900       960     1342
## 7   2013     3    17     2321            810       911      135
## 8   2013     7    22     2257            759       898      121
## 9   2013    12     5      756           1700       896     1058
## 10  2013     5     3     1133           2055       878     1250
## # ... with 33,419 more rows, and 12 more variables: sched_arr_time <int>,
## #   arr_delay <dbl>, carrier <chr>, flight <int>, tailnum <chr>,
## #   origin <chr>, dest <chr>, air_time <dbl>, distance <dbl>, hour <dbl>,
## #   minute <dbl>, time_hour <dttm>
```
…
